…
## Get Dataset

Either Download data from GitHub Repo like this:

``` r
allsides_data <- readr::read_csv("https://raw.githubusercontent.com/favstats/AllSideR/master/data/allsides_data.csv")

allsides_data
#> # A tibble: 547 x 17
#>    news_source rating rating_num type  agree disagree perc_agree url  
#>    <chr>       <chr>       <dbl> <chr> <dbl>    <dbl>      <dbl> <chr>
#>  1 AARP        center          3 Thin…  1404     2343      0.375 http…
#>  2 ABC News    left-…          2 News… 13793     9409      0.594 http…
#>  3 Abridge Ne… allsi…         NA News…    31       17      0.646 http…
#>  4 Accuracy i… right           5 Thin…   743      444      0.626 http…
#>  5 ACLU        left-…          2 Thin…  1272     1697      0.428 http…
#>  6 AJ+         left            1 News…    13        5      0.722 http…
#>  7 Al Cardenas right           5 Auth…   353      238      0.597 http…
#>  8 Al Jazeera  left-…          2 News…  3707     6138      0.377 http…
#>  9 AllSides    allsi…         NA News…  3301     1308      0.716 http…
#> 10 AllSides C… allsi…         NA News…  2142     1273      0.627 http…
#> # … with 537 more rows, and 9 more variables: editorial_review <chr>,
#> #   blind_survey <dbl>, third_party_analysis <dbl>,
#> #   independent_research <dbl>, confidence_level <chr>, twitter <chr>,
#> #   wiki <chr>, facebook <chr>, screen_name <chr>
```
…
